results/issue-3/build/true_random_generator_tb.vcd
$date
	Mon Mar 16 10:11:04 2026
$end
$version
	Icarus Verilog
$end
$timescale
	1ps
$end
$scope module true_random_generator_tb $end
$var wire 1 ! b_test_failed $end
$var wire 32 " b_random_data [31:0] $end
$var wire 1 # b_entropy_low $end
$var wire 1 $ b_data_valid $end
$var wire 1 % a_test_failed $end
$var wire 32 & a_random_data [31:0] $end
$var wire 1 ' a_entropy_low $end
$var wire 1 ( a_data_valid $end
$var parameter 32 ) CLK_HALF $end
$var parameter 32 * DATA_WIDTH $end
$var parameter 32 + MAX_WAIT $end
$var reg 1 , a_enable $end
$var reg 1 - a_read_next $end
$var reg 1 . b_enable $end
$var reg 1 / b_read_next $end
$var reg 1 0 clk $end
$var reg 1 1 rst_n $end
$var reg 1 2 timed_out $end
$var reg 32 3 val1 [31:0] $end
$var reg 32 4 val2 [31:0] $end
$var integer 32 5 fail_count [31:0] $end
$var integer 32 6 pass_count [31:0] $end
$scope module dut_a $end
$var wire 1 0 clk $end
$var wire 1 ( data_valid $end
$var wire 1 , enable $end
$var wire 1 ' entropy_low $end
$var wire 1 - read_next $end
$var wire 1 1 rst_n $end
$var wire 1 % test_failed $end
$var wire 32 7 random_data [31:0] $end
$var parameter 2 8 COLLECTING $end
$var parameter 32 9 DATA_WIDTH $end
$var parameter 2 : IDLE $end
$var parameter 2 ; READY $end
$var parameter 2 < TEST $end
$var parameter 32 = USE_RINGOSCILLATOR $end
$var reg 1 > data_valid_reg $end
$var reg 32 ? entropy_pool [31:0] $end
$var reg 32 @ entropy_pool2 [31:0] $end
$var reg 8 A health_counter [7:0] $end
$var reg 32 B lfsr_reg [31:0] $end
$var reg 32 C mixed_output [31:0] $end
$var reg 2 D next_state [1:0] $end
$var reg 2 E state [1:0] $end
$scope begin gen_lfsr_only $end
$upscope $end
$upscope $end
$scope module dut_b $end
$var wire 1 0 clk $end
$var wire 1 $ data_valid $end
$var wire 1 . enable $end
$var wire 1 # entropy_low $end
$var wire 1 / read_next $end
$var wire 1 1 rst_n $end
$var wire 1 ! test_failed $end
$var wire 32 F random_data [31:0] $end
$var parameter 2 G COLLECTING $end
$var parameter 32 H DATA_WIDTH $end
$var parameter 2 I IDLE $end
$var parameter 2 J READY $end
$var parameter 2 K TEST $end
$var parameter 32 L USE_RINGOSCILLATOR $end
$var reg 1 M data_valid_reg $end
$var reg 32 N entropy_pool [31:0] $end
$var reg 32 O entropy_pool2 [31:0] $end
$var reg 8 P health_counter [7:0] $end
$var reg 32 Q lfsr_reg [31:0] $end
$var reg 32 R mixed_output [31:0] $end
$var reg 2 S next_state [1:0] $end
$var reg 2 T state [1:0] $end
$scope begin gen_ring_osc $end
$var wire 6 U inv_chain [5:0] $end
$var reg 1 V init_osc $end
$var reg 1 W toggle_sampling $end
$upscope $end
$upscope $end
$scope task check $end
$upscope $end
$scope task wait_a_valid $end
$upscope $end
$scope task wait_b_valid $end
$upscope $end
$upscope $end
$enddefinitions $end
$comment Show the parameter values. $end
$dumpall
b1 L
b11 K
b10 J
b0 I
b100000 H
b1 G
b0 =
b11 <
b10 ;
b0 :
b100000 9
b1 8
b10010110 +
b100000 *
b101 )
$end
#0
$dumpvars
xW
1V
b101010 U
bx T
bx S
bx R
bx Q
bx P
bx O
bx N
xM
bx F
bx E
bx D
bx C
bx B
bx A
bx @
bx ?
x>
bx 7
b0 6
b0 5
bx 4
bx 3
x2
01
00
0/
0.
0-
0,
x(
x'
bx &
x%
x$
x#
bx "
x!
$end
#5000
1%
1!
b0 &
b0 7
b0 D
0'
b0 "
b0 F
b0 S
0#
b1 ?
b11111111111111111111111111111111 @
b10101011110011011110100101110001 B
b0 C
b0 E
b0 A
0(
0>
0W
b1 N
b11111111111111111111111111111111 O
b10101011110011011110100101110001 Q
b0 R
b0 T
b0 P
0$
0M
10
#10000
00
#15000
10
#20000
00
#25000
10
#30000
00
#35000
b110 6
10
#40000
00
#45000
0V
11
10
#50000
00
#55000
b1 D
1,
10
#60000
00
#65000
1'
b11011111100110111101001011000011 B
b1 E
10
#70000
00
#75000
b1 A
b1010111001101101010110110000111 B
b11 ?
10
#80000
00
#85000
b110 ?
b11101110011011000101001100001110 B
b10 A
10
#90000
00
#95000
b11 A
b10100110110001010111000111101 B
b1101 ?
10
#100000
00
#105000
b11011 ?
b101001101100000101110001111010 B
b100 A
10
#110000
00
#115000
b101 A
b1110011011000001011100011010100 B
b110110 ?
10
#120000
00
#125000
b1101100 ?
b10000110110000000111100110001000 B
b110 A
10
#130000
00
#135000
b111 A
b10100101100000001111001100010001 B
b11011001 ?
10
#140000
00
#145000
b110110011 ?
b11000011000000011110011000000011 B
b1000 A
10
#150000
00
#155000
b1001 A
b1101110000000111100010000000111 B
b1101100111 ?
b1000 6
10
#160000
00
#165000
b11011001111 ?
b10111100000001111000000000101110 B
b1010 A
10
#170000
00
#175000
b1011 A
b11110000000011100000000001111101 B
b110110011111 ?
10
#180000
00
#185000
b1101100111111 ?
b101000000111010000100011011011 B
b1100 A
10
#190000
00
#195000
b1101 A
b1110000001110100001000110010110 B
b11011001111111 ?
10
#200000
00
#205000
b110110011111110 ?
b10000000011101010010101100001100 B
b1110 A
10
#210000
00
#215000
b1111 A
b10101000111010100101011000011001 B
b1101100111111101 ?
10
#220000
00
#225000
b11011001111111011 ?
b11011001110101001010110000010011 B
b10000 A
10
#230000
00
#235000
b10001 A
b1011011101010000101000000100111 B
b110110011111110110 ?
10
#240000
00
#245000
b1101100111111101101 ?
b11110111010100011010100001001110 B
b10010 A
10
#250000
00
#255000
b10011 A
b100110101000100101100010111101 B
b11011001111111011010 ?
10
#260000
00
#265000
b110110011111110110100 ?
b1101101010001001011000101011010 B
b10100 A
10
#270000
00
#275000
b10101 A
b10111010100010010110101010010100 B
b1101100111111101101001 ?
10
#280000
00
#285000
b11011001111111011010011 ?
b11111101000100111101010100001001 B
b10110 A
10
#290000
00
#295000
b10111 A
b110010001001101010001000110011 B
b110110011111110110100110 ?
10
#300000
00
#305000
b1101100111111101101001100 ?
b1000100010011000100010001000110 B
b11000 A
10
#310000
00
#315000
b11001 A
b11001000100110001000000010001100 B
b11011001111111011010011001 ?
10
#320000
00
#325000
b110110011111110110100110011 ?
b1111001001100010000100100011001 B
b11010 A
10
#330000
00
#335000
b11011 A
b10010010011000110001101000010010 B
b1101100111111101101001100110 ?
10
#340000
00
#345000
b11011001111111011010011001101 ?
b10001100110001110011010000100101 B
b11100 A
10
#350000
00
#355000
b11101 A
b10110001100011100110100001001011 B
b110110011111110110100110011010 ?
10
#360000
00
#365000
b1101100111111101101001100110101 ?
b11101011000111011101000010110111 B
b11110 A
10
#370000
00
#375000
b11111 A
b11110001110111010100101001111 B
b11011001111111011010011001101010 ?
10
#380000
00
#385000
0'
b10110011111110110100110011010101 ?
b111100011101100101001010011110 B
b100000 A
10
#390000
00
#395000
b100001 A
b1011000111011011010010100011100 B
b1100111111101101001100110101011 ?
10
#400000
00
#405000
b11001111111011010011001101010110 ?
b11110001110110100100001000111000 B
b100010 A
10
#410000
00
#415000
b100011 A
b101011101101011000110001010001 B
b10011111110110100110011010101101 ?
10
#420000
00
#425000
b111111101101001100110101011010 ?
b1110111011010110001100010000010 B
b100100 A
10
#430000
00
#435000
b100101 A
b10001110110101110011100100100100 B
b1111111011010011001101010110100 ?
10
#440000
00
#445000
b11111110110100110011010101101000 ?
b10110101101011100111001001001001 B
b100110 A
10
#450000
00
#455000
b100111 A
b11100011010111011110010010110011 B
b11111101101001100110101011010000 ?
10
#460000
00
#465000
b11111011010011001101010110100000 ?
b1110101110111100000101000111 B
b101000 A
10
#470000
00
#475000
b101001 A
b11101011101111000001010001110 B
b11110110100110011010101101000000 ?
10
#480000
00
#485000
b11101101001100110101011010000000 ?
b111010111011100000010100011100 B
b101010 A
10
#490000
00
#495000
b101011 A
b1010101110111010000101000011000 B
b11011010011001101010110100000001 ?
10
#500000
00
#505000
b10110100110011010101101000000010 ?
b11101011101110110001110000110000 B
b101100 A
10
#510000
00
#515000
b101101 A
b11111011101100011000001000001 B
b1101001100110101011010000000101 ?
10
#520000
00
#525000
b11010011001101010110100000001011 ?
b111110111011010110000010000010 B
b101110 A
10
#530000
00
#535000
b101111 A
b1011101110110111100000100100100 B
b10100110011010101101000000010111 ?
10
#540000
00
#545000
b1001100110101011010000000101110 ?
b11111011101101101000101001001000 B
b110000 A
10
#550000
00
#555000
b110001 A
b111111011011000001110010110001 B
b10011001101010110100000001011100 ?
10
#560000
00
#565000
b110011010101101000000010111001 ?
b1011110110110010011100101000010 B
b110010 A
10
#570000
00
#575000
b110011 A
b11111101101100110111101010000100 B
b1100110101011010000000101110010 ?
10
#580000
00
#585000
b11001101010110100000001011100100 ?
b110011011001111111110100101001 B
b110100 A
10
#590000
00
#595000
b110101 A
b1000110110011101111101001110010 B
b10011010101101000000010111001000 ?
10
#600000
00
#605000
b110101011010000000101110010000 ?
b11001101100111011111110011100100 B
b110110 A
10
#610000
00
#615000
b110111 A
b1110011001110111111000111001001 B
b1101010110100000001011100100001 ?
10
#620000
00
#625000
b11010101101000000010111001000010 ?
b10000110011101101110101110110010 B
b111000 A
10
#630000
00
#635000
b111001 A
b10100100111011011101011101100101 B
b10101011010000000101110010000100 ?
10
#640000
00
#645000
b1010110100000001011100100001000 ?
b11000001110110111010111011101011 B
b111010 A
10
#650000
00
#655000
b111011 A
b1101011101101110101010111010111 B
b10101101000000010111001000010001 ?
10
#660000
00
#665000
b1011010000000101110010000100010 ?
b10110111011011101010001110001110 B
b111100 A
10
#670000
00
#675000
b111101 A
b11100110110111000100011100111101 B
b10110100000001011100100001000101 ?
10
#680000
00
#685000
b1101000000010111001000010001010 ?
b101101110001000011001011011 B
b111110 A
10
#690000
00
#695000
b111111 A
b1011011100010000110010110110 B
b11010000000101110010000100010100 ?
10
#700000
00
#705000
b11 D
b10100000001011100100001000101000 ?
b10110111000100001100101101100 B
b1000000 A
10
#710000
00
#715000
b10 D
b1000001 A
b11 E
b101101110001010011001011011000 B
b1000000010111001000010001010000 ?
10
#720000
00
#725000
b1111011100010100110010110010000 B
b10 E
10
#730000
00
#735000
0%
b11110001001111010011100111110101 &
b11110001001111010011100111110101 7
1(
1>
b11110001001111010011100111110101 C
b10010111000101011100001100000000 B
10
#740000
00
#745000
b10111011001100100111001111111010 &
b10111011001100100111001111111010 7
b10000110001010101000011000000001 B
b10111011001100100111001111111010 C
b1 D
1-
b11110001001111010011100111110101 3
b1101 6
02
10
#750000
00
#755000
1%
b0 &
b0 7
b1 E
b11101111000011000010011111000100 C
b10100100010101010000110000000011 B
b11 D
0-
10
#760000
00
#765000
b10 D
b10000000101110010000100010100001 ?
b11000000101010100001100000100111 B
b11 E
b1000010 A
0(
0>
10
#770000
00
#775000
0%
b11101111000011000010011111000100 &
b11101111000011000010011111000100 7
b10 E
b1101001010101000011100001001111 B
b1110 6
10
#780000
00
#785000
b10001111010101010001111111000101 &
b10001111010101010001111111000101 7
b10110010101010000111100010111110 B
b10001111010101010001111111000101 C
1(
1>
10
#790000
00
#795000
b10100010110001000010011001000 &
b10100010110001000010011001000 7
b10100010110001000010011001000 C
b11101101010100011111000101011101 B
b0 D
0,
b10001111010101010001111111000101 4
b10000 6
10
#800000
00
#805000
1%
b0 &
b0 7
b11000010010000100101001011010010 C
b0 E
10
#810000
00
#815000
0(
0>
b0 A
10
#820000
00
#825000
b1 D
1,
b10010 6
10
#830000
00
#835000
1'
b1 E
b10010101000111110101010011011 B
10
#840000
00
#845000
b1011100100001000101000010 ?
b100101010001101101010100110110 B
b1 A
10
#850000
00
#855000
b10 A
b1101010100011011010101001001100 B
b10111001000010001010000100 ?
10
#860000
00
#865000
b101110010000100010100001000 ?
b10110101000110110101110010111000 B
b11 A
10
#870000
00
#875000
b100 A
b11100010001101111011100101010001 B
b1011100100001000101000010001 ?
10
#880000
00
#885000
b10111001000010001010000100010 ?
b1100011011110111101010000011 B
b101 A
10
#890000
00
#895000
b110 A
b11000110111101111010100000110 B
b101110010000100010100001000100 ?
10
#900000
00
#905000
b1011100100001000101000010001000 ?
b110001101111001110101000001100 B
b111 A
10
#910000
00
#915000
b1000 A
b1000011011110001101010000111000 B
b10111001000010001010000100010000 ?
10
#920000
00
#925000
b1110010000100010100001000100001 ?
b11000110111100011010000001110000 B
b1001 A
10
#930000
00
#935000
b1010 A
b1100101111000110100100011100001 B
b11100100001000101000010001000011 ?
10
#940000
00
#945000
b11001000010001010000100010000111 ?
b10101011110001101001100111100010 B
b1011 A
10
#950000
00
#955000
b1100 A
b11011111100011010011001111100101 B
b10010000100010100001000100001110 ?
10
#960000
00
#965000
b100001000101000010001000011101 ?
b1010111000110110110111111001011 B
b1101 A
10
#970000
00
#975000
b1110 A
b11101110001101111101011110010110 B
b1000010001010000100010000111010 ?
10
#980000
00
#985000
b10000100010100001000100001110100 ?
b10100011011111010011100001101 B
b1111 A
10
#990000
00
#995000
b10000 A
b101000110111100100111000011010 B
b1000101000010001000011101000 ?
10
#1000000
00
#1005000
b10001010000100010000111010000 ?
b1110001101111001001110000010100 B
b10001 A
10
#1010000
00
#1015000
b10010 A
b10000011011110000011000000001000 B
b100010100001000100001110100001 ?
10
#1020000
00
#1025000
b1000101000010001000011101000010 ?
b10101110111100000110000000010001 B
b10011 A
b0 D
0,
b10011 6
10
#1030000
00
#1035000
0'
b10100 A
b0 E
10
#1040000
00
#1045000
b0 A
b1 D
1,
b10100 6
10
#1050000
00
#1055000
1'
b1 E
b11010101111000001100000000000011 B
10
#1060000
00
#1065000
b10001010000100010000111010000101 ?
b1000011110000001000100000000111 B
b1 A
10
#1070000
00
#1075000
b10 A
b11000111100000010001100000001110 B
b10100001000100001110100001011 ?
10
#1080000
00
#1085000
b101000010001000011101000010111 ?
b1100111000000100011100000011101 B
b11 A
10
#1090000
00
#1095000
b100 A
b10101110000001000111100000011010 B
b1010000100010000111010000101111 ?
10
#1100000
00
#1105000
b10100001000100001110100001011110 ?
b11010100000010001111000000010101 B
b101 A
10
#1110000
00
#1115000
b110 A
b1000000000100001110100000101011 B
b1000010001000011101000010111100 ?
10
#1120000
00
#1125000
b10000100010000111010000101111000 ?
b11000000001000011101100001010110 B
b111 A
10
#1130000
00
#1135000
b1000 A
b1101000010000111011100010101101 B
b1000100001110100001011110000 ?
10
#1140000
00
#1145000
b10001000011101000010111100000 ?
b10110000100001110111100101111010 B
b1001 A
10
#1150000
00
#1155000
b1010 A
b11101001000011111111001011010101 B
b100010000111010000101111000000 ?
10
#1160000
00
#1165000
b1000100001110100001011110000001 ?
b11010000111111110110110001011 B
b1011 A
10
#1170000
00
#1175000
b1100 A
b110100001111101101101100010110 B
b10001000011101000010111100000010 ?
10
#1180000
00
#1185000
b10000111010000101111000000101 ?
b1001000011111001011011000001100 B
b1101 A
10
#1190000
00
#1195000
b1110 A
b11010000111110010110010000011000 B
b100001110100001011110000001010 ?
10
#1200000
00
#1205000
b1000011101000010111100000010101 ?
b1001001111100111100000000110001 B
b1111 A
10
#1210000
00
#1215000
b10000 A
b11010011111001111000100001100010 B
b10000111010000101111000000101011 ?
10
#1220000
00
#1225000
b1110100001011110000001010111 ?
b1001111110011100001100011000101 B
b10001 A
10
#1230000
00
#1235000
b10010 A
b11011111100111000011100110001010 B
b11101000010111100000010101111 ?
10
#1240000
00
#1245000
b111010000101111000000101011110 ?
b1010111001110010111101100010101 B
b10011 A
10
#1250000
00
#1255000
b10100 A
b11101110011100111111111000101010 B
b1110100001011110000001010111101 ?
10
#1260000
00
#1265000
b11101000010111100000010101111011 ?
b10100111001111111010001110101 B
b10101 A
10
#1270000
00
#1275000
b10110 A
b101001110011101110100011101010 B
b11010000101111000000101011110110 ?
10
#1280000
00
#1285000
b10100001011110000001010111101101 ?
b1110011100111011101000111110100 B
b10111 A
10
#1290000
00
#1295000
b11000 A
b10000111001110101010101111001000 B
b1000010111100000010101111011011 ?
10
#1300000
00
#1305000
b10000101111000000101011110110111 ?
b10100110011101010101011110010001 B
b11001 A
10
#1310000
00
#1315000
b11010 A
b11000100111010101010111100000011 B
b1011110000001010111101101110 ?
10
#1320000
00
#1325000
b10111100000010101111011011101 ?
b1100001110101010101011000000111 B
b11011 A
10
#1330000
00
#1335000
b11100 A
b10100011101010101010010000101110 B
b101111000000101011110110111011 ?
10
#1340000
00
#1345000
b1011110000001010111101101110110 ?
b11001111010101010100100001111101 B
b11101 A
10
#1350000
00
#1355000
b11110 A
b1110110101010101001100011111011 B
b10111100000010101111011011101101 ?
10
#1360000
00
#1365000
b1111000000101011110110111011010 ?
b10001101010101000011100111010110 B
b11111 A
10
#1370000
00
#1375000
0'
b100000 A
b10110010101010000111001110101101 B
b11110000001010111101101110110100 ?
10
#1380000
00
#1385000
b11100000010101111011011101101000 ?
b11101101010100011110011101111011 B
b100001 A
10
#1390000
00
#1395000
b100010 A
b10010101000111100011011010111 B
b11000000101011110110111011010001 ?
10
#1400000
00
#1405000
b10000001010111101101110110100011 ?
b100101010001101000110110101110 B
b100011 A
10
#1410000
00
#1415000
b100100 A
b1101010100011010001101101111100 B
b10101111011011101101000110 ?
10
#1420000
00
#1425000
b101011110110111011010001100 ?
b10110101000110100011111011011000 B
b100101 A
10
#1430000
00
#1435000
b100110 A
b11100010001101010111110110010001 B
b1010111101101110110100011001 ?
10
#1440000
00
#1445000
b10101111011011101101000110010 ?
b1100011010101111001100000011 B
b100111 A
10
#1450000
00
#1455000
b101000 A
b11000110101011110011000000110 B
b101011110110111011010001100101 ?
10
#1460000
00
#1465000
b1010111101101110110100011001011 ?
b110001101010101100110000001100 B
b101001 A
10
#1470000
00
#1475000
b101010 A
b1000011010101001001100000111000 B
b10101111011011101101000110010110 ?
10
#1480000
00
#1485000
b1011110110111011010001100101100 ?
b11000110101010010011100001110000 B
b101011 A
10
#1490000
00
#1495000
b101100 A
b1100101010100100111100011100001 B
b10111101101110110100011001011001 ?
10
#1500000
00
#1505000
b1111011011101101000110010110010 ?
b10101010101001001111100111100010 B
b101101 A
10
#1510000
00
#1515000
b101110 A
b11011101010010011111001111100101 B
b11110110111011010001100101100101 ?
10
#1520000
00
#1525000
b11101101110110100011001011001010 ?
b1010010100100101110111111001011 B
b101111 A
10
#1530000
00
#1535000
b110000 A
b11100101001001001101011110010110 B
b11011011101101000110010110010101 ?
10
#1540000
00
#1545000
b10110111011010001100101100101010 ?
b10010010011010011100001101 B
b110001 A
10
#1550000
00
#1555000
b110010 A
b100100100110100111000011010 B
b1101110110100011001011001010100 ?
10
#1560000
00
#1565000
b11011101101000110010110010101001 ?
b1001001001101001110000110100 B
b110011 A
10
#1570000
00
#1575000
b110100 A
b10010010011010011100001101000 B
b10111011010001100101100101010010 ?
10
#1580000
00
#1585000
b1110110100011001011001010100100 ?
b100100100110110111000011010000 B
b110101 A
10
#1590000
00
#1595000
b110110 A
b1101001001101101110000110000000 B
b11101101000110010110010101001000 ?
10
#1600000
00
#1605000
b11011010001100101100101010010000 ?
b10110010011011011100101100100000 B
b110111 A
10
#1610000
00
#1615000
b111000 A
b11101100110110101001011001100001 B
b10110100011001011001010100100001 ?
10
#1620000
00
#1625000
b1101000110010110010101001000011 ?
b10001101101010010010011100011 B
b111001 A
10
#1630000
00
#1635000
b111010 A
b100011011010110100100111000110 B
b11010001100101100101010010000111 ?
10
#1640000
00
#1645000
b10100011001011001010100100001111 ?
b1100110110101101001001110101100 B
b111011 A
10
#1650000
00
#1655000
b111100 A
b10101101101011010010111101111000 B
b1000110010110010101001000011111 ?
10
#1660000
00
#1665000
b10001100101100101010010000111110 ?
b11010011010110100101111011010001 B
b111101 A
10
#1670000
00
#1675000
b111110 A
b1001110101101011011010110100011 B
b11001011001010100100001111100 ?
10
#1680000
00
#1685000
b110010110010101001000011111001 ?
b11011101011010110110001101000110 B
b111111 A
10
#1690000
00
#1695000
b11 D
b1000000 A
b1010010110101111100111010001101 B
b1100101100101010010000111110011 ?
10
#1700000
00
#1705000
b10 D
b11001011001010100100001111100111 ?
b11100101101011101001010100011010 B
b11 E
b1000001 A
10
#1710000
00
#1715000
0%
b11000010010000100101001011010010 &
b11000010010000100101001011010010 7
b10 E
b11010111010010001000010101 B
10
#1720000
00
#1725000
b11110010110111101011011110011011 &
b11110010110111101011011110011011 7
b110101110100100010000101010 B
b11110010110111101011011110011011 C
1(
1>
10
#1730000
00
#1735000
b10010001000001101101010001000011 &
b10010001000001101101010001000011 7
b10010001000001101101010001000011 C
b1101011101001000100001010100 B
b1 S
b0 D
1.
0,
b10101 6
10
#1740000
00
#1745000
1%
b0 &
b0 7
1#
b1010110101101100001001111110011 C
b0 E
1W
b11011111100110111101001011000011 Q
b1 T
10
#1750000
00
#1755000
b1 P
b1010111001101101010110110000111 Q
b1111111111111111111111111111111 O
b11 N
0(
0>
b0 A
10
#1760000
00
#1765000
b111 N
b111111111111111111111111111111 O
b11101110011011000101001100001110 Q
b10 P
10
#1770000
00
#1775000
b11 P
b10100110110001010111000111101 Q
b11111111111111111111111111111 O
b1111 N
10
#1780000
00
#1785000
b11111 N
b1111111111111111111111111111 O
b101001101100000101110001111010 Q
b100 P
10
#1790000
00
#1795000
b101 P
b1110011011000001011100011010100 Q
b111111111111111111111111111 O
b111111 N
10
#1800000
00
#1805000
b1111111 N
b11111111111111111111111111 O
b10000110110000000111100110001000 Q
b110 P
10
#1810000
00
#1815000
b111 P
b10100101100000001111001100010001 Q
b1111111111111111111111111 O
b11111111 N
10
#1820000
00
#1825000
b111111111 N
b111111111111111111111111 O
b11000011000000011110011000000011 Q
b1000 P
10
#1830000
00
#1835000
b1001 P
b1101110000000111100010000000111 Q
b11111111111111111111111 O
b1111111111 N
10
#1840000
00
#1845000
b11111111111 N
b1111111111111111111111 O
b10111100000001111000000000101110 Q
b1010 P
10
#1850000
00
#1855000
b1011 P
b11110000000011100000000001111101 Q
b111111111111111111111 O
b111111111111 N
10
#1860000
00
#1865000
b1111111111111 N
b11111111111111111111 O
b101000000111010000100011011011 Q
b1100 P
10
#1870000
00
#1875000
b1101 P
b1110000001110100001000110010110 Q
b1111111111111111111 O
b11111111111111 N
10
#1880000
00
#1885000
b111111111111111 N
b111111111111111111 O
b10000000011101010010101100001100 Q
b1110 P
10
#1890000
00
#1895000
b1111 P
b10101000111010100101011000011001 Q
b11111111111111111 O
b1111111111111111 N
10
#1900000
00
#1905000
b11111111111111111 N
b1111111111111111 O
b11011001110101001010110000010011 Q
b10000 P
10
#1910000
00
#1915000
b10001 P
b1011011101010000101000000100111 Q
b111111111111111 O
b111111111111111111 N
10
#1920000
00
#1925000
b1111111111111111111 N
b11111111111111 O
b11110111010100011010100001001110 Q
b10010 P
10
#1930000
00
#1935000
b10011 P
b100110101000100101100010111101 Q
b1111111111111 O
b11111111111111111111 N
10
#1940000
00
#1945000
b111111111111111111111 N
b111111111111 O
b1101101010001001011000101011010 Q
b10100 P
10
#1950000
00
#1955000
b10101 P
b10111010100010010110101010010100 Q
b11111111111 O
b1111111111111111111111 N
10
#1960000
00
#1965000
b11111111111111111111111 N
b1111111111 O
b11111101000100111101010100001001 Q
b10110 P
10
#1970000
00
#1975000
b10111 P
b110010001001101010001000110011 Q
b111111111 O
b111111111111111111111111 N
10
#1980000
00
#1985000
b1111111111111111111111111 N
b11111111 O
b1000100010011000100010001000110 Q
b11000 P
10
#1990000
00
#1995000
b11001 P
b11001000100110001000000010001100 Q
b1111111 O
b11111111111111111111111111 N
10
#2000000
00
#2005000
b111111111111111111111111111 N
b111111 O
b1111001001100010000100100011001 Q
b11010 P
10
#2010000
00
#2015000
b11011 P
b10010010011000110001101000010010 Q
b11111 O
b1111111111111111111111111111 N
10
#2020000
00
#2025000
b11111111111111111111111111111 N
b1111 O
b10001100110001110011010000100101 Q
b11100 P
10
#2030000
00
#2035000
b11101 P
b10110001100011100110100001001011 Q
b111 O
b111111111111111111111111111111 N
10
#2040000
00
#2045000
b1111111111111111111111111111111 N
b11 O
b11101011000111011101000010110111 Q
b11110 P
10
#2050000
00
#2055000
b11111 P
b11110001110111010100101001111 Q
b1 O
b11111111111111111111111111111111 N
10
#2060000
00
#2065000
0#
b11111111111111111111111111111110 N
b0 O
b111100011101100101001010011110 Q
b100000 P
10
#2070000
00
#2075000
b100001 P
b1011000111011011010010100011100 Q
b10000000000000000000000000000000 O
b11111111111111111111111111111100 N
10
#2080000
00
#2085000
b11111111111111111111111111111000 N
b11000000000000000000000000000000 O
b11110001110110100100001000111000 Q
b100010 P
10
#2090000
00
#2095000
b100011 P
b101011101101011000110001010001 Q
b11100000000000000000000000000000 O
b11111111111111111111111111110000 N
10
#2100000
00
#2105000
b11111111111111111111111111100000 N
b11110000000000000000000000000000 O
b1110111011010110001100010000010 Q
b100100 P
10
#2110000
00
#2115000
b100101 P
b10001110110101110011100100100100 Q
b11111000000000000000000000000000 O
b11111111111111111111111111000000 N
10
#2120000
00
#2125000
b11111111111111111111111110000000 N
b11111100000000000000000000000000 O
b10110101101011100111001001001001 Q
b100110 P
10
#2130000
00
#2135000
b100111 P
b11100011010111011110010010110011 Q
b11111110000000000000000000000000 O
b11111111111111111111111100000000 N
10
#2140000
00
#2145000
b11111111111111111111111000000000 N
b11111111000000000000000000000000 O
b1110101110111100000101000111 Q
b101000 P
10
#2150000
00
#2155000
b101001 P
b11101011101111000001010001110 Q
b11111111100000000000000000000000 O
b11111111111111111111110000000000 N
10
#2160000
00
#2165000
b11111111111111111111100000000000 N
b11111111110000000000000000000000 O
b111010111011100000010100011100 Q
b101010 P
10
#2170000
00
#2175000
b101011 P
b1010101110111010000101000011000 Q
b11111111111000000000000000000000 O
b11111111111111111111000000000000 N
10
#2180000
00
#2185000
b11111111111111111110000000000000 N
b11111111111100000000000000000000 O
b11101011101110110001110000110000 Q
b101100 P
10
#2190000
00
#2195000
b101101 P
b11111011101100011000001000001 Q
b11111111111110000000000000000000 O
b11111111111111111100000000000000 N
10
#2200000
00
#2205000
b11111111111111111000000000000000 N
b11111111111111000000000000000000 O
b111110111011010110000010000010 Q
b101110 P
10
#2210000
00
#2215000
b101111 P
b1011101110110111100000100100100 Q
b11111111111111100000000000000000 O
b11111111111111110000000000000000 N
10
#2220000
00
#2225000
b11111111111111100000000000000000 N
b11111111111111110000000000000000 O
b11111011101101101000101001001000 Q
b110000 P
10
#2230000
00
#2235000
b110001 P
b111111011011000001110010110001 Q
b11111111111111111000000000000000 O
b11111111111111000000000000000000 N
10
#2240000
00
#2245000
b11111111111110000000000000000000 N
b11111111111111111100000000000000 O
b1011110110110010011100101000010 Q
b110010 P
10
#2250000
00
#2255000
b110011 P
b11111101101100110111101010000100 Q
b11111111111111111110000000000000 O
b11111111111100000000000000000000 N
10
#2260000
00
#2265000
b11111111111000000000000000000000 N
b11111111111111111111000000000000 O
b110011011001111111110100101001 Q
b110100 P
10
#2270000
00
#2275000
b110101 P
b1000110110011101111101001110010 Q
b11111111111111111111100000000000 O
b11111111110000000000000000000000 N
10
#2280000
00
#2285000
b11111111100000000000000000000000 N
b11111111111111111111110000000000 O
b11001101100111011111110011100100 Q
b110110 P
10
#2290000
00
#2295000
b110111 P
b1110011001110111111000111001001 Q
b11111111111111111111111000000000 O
b11111111000000000000000000000000 N
10
#2300000
00
#2305000
b11111110000000000000000000000000 N
b11111111111111111111111100000000 O
b10000110011101101110101110110010 Q
b111000 P
10
#2310000
00
#2315000
b111001 P
b10100100111011011101011101100101 Q
b11111111111111111111111110000000 O
b11111100000000000000000000000000 N
10
#2320000
00
#2325000
b11111000000000000000000000000000 N
b11111111111111111111111111000000 O
b11000001110110111010111011101011 Q
b111010 P
10
#2330000
00
#2335000
b111011 P
b1101011101101110101010111010111 Q
b11111111111111111111111111100000 O
b11110000000000000000000000000000 N
10
#2340000
00
#2345000
b11100000000000000000000000000000 N
b11111111111111111111111111110000 O
b10110111011011101010001110001110 Q
b111100 P
10
#2350000
00
#2355000
b111101 P
b11100110110111000100011100111101 Q
b11111111111111111111111111111000 O
b11000000000000000000000000000000 N
10
#2360000
00
#2365000
b10000000000000000000000000000000 N
b11111111111111111111111111111100 O
b101101110001000011001011011 Q
b111110 P
10
#2370000
00
#2375000
b111111 P
b1011011100010000110010110110 Q
b11111111111111111111111111111110 O
b0 N
10
#2380000
00
#2385000
b11 S
b1 N
b11111111111111111111111111111111 O
b10110111000100001100101101100 Q
b1000000 P
10
#2390000
00
#2395000
b10 S
b1000001 P
b11 T
b101101110001010011001011011000 Q
b1111111111111111111111111111111 O
b11 N
10
#2400000
00
#2405000
b1111011100010100110010110010000 Q
b10 T
10
#2410000
00
#2415000
0!
b1100010111001011110000111100110 "
b1100010111001011110000111100110 F
1$
1M
b1100010111001011110000111100110 R
b10010111000101011100001100000000 Q
10
#2420000
00
#2425000
b101000111010101010101111101001 "
b101000111010101010101111101001 F
b10000110001010101000011000000001 Q
b101000111010101010101111101001 R
b1 S
1/
b1100010111001011110000111100110 3
b10111 6
10
#2430000
00
#2435000
1!
b0 "
b0 F
b1 T
b1111100110101001111111111010111 R
b10100100010101010000110000000011 Q
b11 S
0/
10
#2440000
00
#2445000
b10 S
b111 N
b111111111111111111111111111111 O
b11000000101010100001100000100111 Q
b11 T
b1000010 P
0$
0M
10
#2450000
00
#2455000
0!
b1111100110101001111111111010111 "
b1111100110101001111111111010111 F
b10 T
b1101001010101000011100001001111 Q
b11000 6
10
#2460000
00
#2465000
b1101001111001001010111011100011 "
b1101001111001001010111011100011 F
b10110010101010000111100010111110 Q
b1101001111001001010111011100011 R
1$
1M
10
#2470000
00
#2475000
b11110010111010010011010111101110 "
b11110010111010010011010111101110 F
b11110010111010010011010111101110 R
b11101101010100011111000101011101 Q
b1 D
1,
1.
b1101001111001001010111011100011 4
b11001 6
10
#2480000
00
