results/issue-12/build/reed_solomon_ecc_tb.vcd
$date
	Fri Mar 13 10:44:58 2026
$end
$version
	Icarus Verilog
$end
$timescale
	1ps
$end
$scope module reed_solomon_ecc_tb $end
$var wire 1 ! vld8 $end
$var wire 1 " vld64 $end
$var wire 1 # vld32 $end
$var wire 1 $ vld16 $end
$var wire 1 % err_det8 $end
$var wire 1 & err_det64 $end
$var wire 1 ' err_det32 $end
$var wire 1 ( err_det16 $end
$var wire 1 ) err_cor8 $end
$var wire 1 * err_cor64 $end
$var wire 1 + err_cor32 $end
$var wire 1 , err_cor16 $end
$var wire 8 - dout8 [7:0] $end
$var wire 64 . dout64 [63:0] $end
$var wire 32 / dout32 [31:0] $end
$var wire 16 0 dout16 [15:0] $end
$var wire 160 1 cw_out8 [159:0] $end
$var wire 160 2 cw_out64 [159:0] $end
$var wire 160 3 cw_out32 [159:0] $end
$var wire 160 4 cw_out16 [159:0] $end
$var reg 1 5 clk $end
$var reg 160 6 cw_in16 [159:0] $end
$var reg 160 7 cw_in32 [159:0] $end
$var reg 160 8 cw_in64 [159:0] $end
$var reg 160 9 cw_in8 [159:0] $end
$var reg 1 : dec_en16 $end
$var reg 1 ; dec_en32 $end
$var reg 1 < dec_en64 $end
$var reg 1 = dec_en8 $end
$var reg 16 > din16 [15:0] $end
$var reg 32 ? din32 [31:0] $end
$var reg 64 @ din64 [63:0] $end
$var reg 8 A din8 [7:0] $end
$var reg 1 B enc_en16 $end
$var reg 1 C enc_en32 $end
$var reg 1 D enc_en64 $end
$var reg 1 E enc_en8 $end
$var reg 1 F rst_n $end
$var reg 48 G saved_cw16 [47:0] $end
$var reg 64 H saved_cw32 [63:0] $end
$var reg 96 I saved_cw64 [95:0] $end
$var reg 40 J saved_cw8 [39:0] $end
$var integer 32 K fail_count [31:0] $end
$scope module dut16 $end
$var wire 1 5 clk $end
$var wire 160 L codeword_in [159:0] $end
$var wire 16 M data_in [15:0] $end
$var wire 1 : decode_en $end
$var wire 1 B encode_en $end
$var wire 1 F rst_n $end
$var wire 1 $ valid_out $end
$var wire 1 ( error_detected $end
$var wire 1 , error_corrected $end
$var wire 16 N data_out [15:0] $end
$var wire 160 O codeword_out [159:0] $end
$var parameter 32 P DATA_WIDTH $end
$scope begin w16 $end
$var wire 48 Q cw_out_w16 [47:0] $end
$scope module u_rs $end
$var wire 1 5 clk $end
$var wire 48 R codeword_in [47:0] $end
$var wire 16 S data_in [15:0] $end
$var wire 1 : decode_en $end
$var wire 1 B encode_en $end
$var wire 8 T feedback_0 [7:0] $end
$var wire 8 U feedback_1 [7:0] $end
$var wire 1 V has_error $end
$var wire 8 W parity_byte_0 [7:0] $end
$var wire 8 X parity_byte_1 [7:0] $end
$var wire 8 Y parity_byte_2 [7:0] $end
$var wire 8 Z parity_byte_3 [7:0] $end
$var wire 1 F rst_n $end
$var wire 8 [ syn_sum_0_1 [7:0] $end
$var wire 8 \ syn_sum_0_2 [7:0] $end
$var wire 8 ] syn_sum_0_3 [7:0] $end
$var wire 8 ^ syn_sum_0_4 [7:0] $end
$var wire 8 _ syn_sum_0_5 [7:0] $end
$var wire 8 ` syn_sum_1_1 [7:0] $end
$var wire 8 a syn_sum_1_2 [7:0] $end
$var wire 8 b syn_sum_1_3 [7:0] $end
$var wire 8 c syn_sum_1_4 [7:0] $end
$var wire 8 d syn_sum_1_5 [7:0] $end
$var wire 8 e syn_sum_2_1 [7:0] $end
$var wire 8 f syn_sum_2_2 [7:0] $end
$var wire 8 g syn_sum_2_3 [7:0] $end
$var wire 8 h syn_sum_2_4 [7:0] $end
$var wire 8 i syn_sum_2_5 [7:0] $end
$var wire 8 j syn_sum_3_1 [7:0] $end
$var wire 8 k syn_sum_3_2 [7:0] $end
$var wire 8 l syn_sum_3_3 [7:0] $end
$var wire 8 m syn_sum_3_4 [7:0] $end
$var wire 8 n syn_sum_3_5 [7:0] $end
$var wire 8 o syn_mul_3_5 [7:0] $end
$var wire 8 p syn_mul_3_4 [7:0] $end
$var wire 8 q syn_mul_3_3 [7:0] $end
$var wire 8 r syn_mul_3_2 [7:0] $end
$var wire 8 s syn_mul_3_1 [7:0] $end
$var wire 8 t syn_mul_2_5 [7:0] $end
$var wire 8 u syn_mul_2_4 [7:0] $end
$var wire 8 v syn_mul_2_3 [7:0] $end
$var wire 8 w syn_mul_2_2 [7:0] $end
$var wire 8 x syn_mul_2_1 [7:0] $end
$var wire 8 y syn_mul_1_5 [7:0] $end
$var wire 8 z syn_mul_1_4 [7:0] $end
$var wire 8 { syn_mul_1_3 [7:0] $end
$var wire 8 | syn_mul_1_2 [7:0] $end
$var wire 8 } syn_mul_1_1 [7:0] $end
$var wire 8 ~ syn_mul_0_5 [7:0] $end
$var wire 8 !" syn_mul_0_4 [7:0] $end
$var wire 8 "" syn_mul_0_3 [7:0] $end
$var wire 8 #" syn_mul_0_2 [7:0] $end
$var wire 8 $" syn_mul_0_1 [7:0] $end
$var wire 8 %" mul_1_3 [7:0] $end
$var wire 8 &" mul_1_2 [7:0] $end
$var wire 8 '" mul_1_1 [7:0] $end
$var wire 8 (" mul_1_0 [7:0] $end
$var wire 8 )" mul_0_3 [7:0] $end
$var wire 8 *" mul_0_2 [7:0] $end
$var wire 8 +" mul_0_1 [7:0] $end
$var wire 8 ," mul_0_0 [7:0] $end
$var wire 48 -" encoded_result [47:0] $end
$var reg 48 ." codeword_out [47:0] $end
$var reg 16 /" data_out [15:0] $end
$var reg 1 , error_corrected $end
$var reg 1 ( error_detected $end
$var reg 1 $ valid_out $end
$upscope $end
$upscope $end
$upscope $end
$scope module dut32 $end
$var wire 1 5 clk $end
$var wire 160 0" codeword_in [159:0] $end
$var wire 32 1" data_in [31:0] $end
$var wire 1 ; decode_en $end
$var wire 1 C encode_en $end
$var wire 1 F rst_n $end
$var wire 1 # valid_out $end
$var wire 1 ' error_detected $end
$var wire 1 + error_corrected $end
$var wire 32 2" data_out [31:0] $end
$var wire 160 3" codeword_out [159:0] $end
$var parameter 32 4" DATA_WIDTH $end
$scope begin w32 $end
$var wire 64 5" cw_out_w32 [63:0] $end
$scope module u_rs $end
$var wire 1 5 clk $end
$var wire 64 6" codeword_in [63:0] $end
$var wire 32 7" data_in [31:0] $end
$var wire 1 ; decode_en $end
$var wire 1 C encode_en $end
$var wire 8 8" feedback_0 [7:0] $end
$var wire 8 9" feedback_1 [7:0] $end
$var wire 8 :" feedback_2 [7:0] $end
$var wire 8 ;" feedback_3 [7:0] $end
$var wire 1 <" has_error $end
$var wire 8 =" parity_byte_0 [7:0] $end
$var wire 8 >" parity_byte_1 [7:0] $end
$var wire 8 ?" parity_byte_2 [7:0] $end
$var wire 8 @" parity_byte_3 [7:0] $end
$var wire 1 F rst_n $end
$var wire 8 A" syn_sum_0_1 [7:0] $end
$var wire 8 B" syn_sum_0_2 [7:0] $end
$var wire 8 C" syn_sum_0_3 [7:0] $end
$var wire 8 D" syn_sum_0_4 [7:0] $end
$var wire 8 E" syn_sum_0_5 [7:0] $end
$var wire 8 F" syn_sum_0_6 [7:0] $end
$var wire 8 G" syn_sum_0_7 [7:0] $end
$var wire 8 H" syn_sum_1_1 [7:0] $end
$var wire 8 I" syn_sum_1_2 [7:0] $end
$var wire 8 J" syn_sum_1_3 [7:0] $end
$var wire 8 K" syn_sum_1_4 [7:0] $end
$var wire 8 L" syn_sum_1_5 [7:0] $end
$var wire 8 M" syn_sum_1_6 [7:0] $end
$var wire 8 N" syn_sum_1_7 [7:0] $end
$var wire 8 O" syn_sum_2_1 [7:0] $end
$var wire 8 P" syn_sum_2_2 [7:0] $end
$var wire 8 Q" syn_sum_2_3 [7:0] $end
$var wire 8 R" syn_sum_2_4 [7:0] $end
$var wire 8 S" syn_sum_2_5 [7:0] $end
$var wire 8 T" syn_sum_2_6 [7:0] $end
$var wire 8 U" syn_sum_2_7 [7:0] $end
$var wire 8 V" syn_sum_3_1 [7:0] $end
$var wire 8 W" syn_sum_3_2 [7:0] $end
$var wire 8 X" syn_sum_3_3 [7:0] $end
$var wire 8 Y" syn_sum_3_4 [7:0] $end
$var wire 8 Z" syn_sum_3_5 [7:0] $end
$var wire 8 [" syn_sum_3_6 [7:0] $end
$var wire 8 \" syn_sum_3_7 [7:0] $end
$var wire 8 ]" syn_mul_3_7 [7:0] $end
$var wire 8 ^" syn_mul_3_6 [7:0] $end
$var wire 8 _" syn_mul_3_5 [7:0] $end
$var wire 8 `" syn_mul_3_4 [7:0] $end
$var wire 8 a" syn_mul_3_3 [7:0] $end
$var wire 8 b" syn_mul_3_2 [7:0] $end
$var wire 8 c" syn_mul_3_1 [7:0] $end
$var wire 8 d" syn_mul_2_7 [7:0] $end
$var wire 8 e" syn_mul_2_6 [7:0] $end
$var wire 8 f" syn_mul_2_5 [7:0] $end
$var wire 8 g" syn_mul_2_4 [7:0] $end
$var wire 8 h" syn_mul_2_3 [7:0] $end
$var wire 8 i" syn_mul_2_2 [7:0] $end
$var wire 8 j" syn_mul_2_1 [7:0] $end
$var wire 8 k" syn_mul_1_7 [7:0] $end
$var wire 8 l" syn_mul_1_6 [7:0] $end
$var wire 8 m" syn_mul_1_5 [7:0] $end
$var wire 8 n" syn_mul_1_4 [7:0] $end
$var wire 8 o" syn_mul_1_3 [7:0] $end
$var wire 8 p" syn_mul_1_2 [7:0] $end
$var wire 8 q" syn_mul_1_1 [7:0] $end
$var wire 8 r" syn_mul_0_7 [7:0] $end
$var wire 8 s" syn_mul_0_6 [7:0] $end
$var wire 8 t" syn_mul_0_5 [7:0] $end
$var wire 8 u" syn_mul_0_4 [7:0] $end
$var wire 8 v" syn_mul_0_3 [7:0] $end
$var wire 8 w" syn_mul_0_2 [7:0] $end
$var wire 8 x" syn_mul_0_1 [7:0] $end
$var wire 8 y" mul_3_3 [7:0] $end
$var wire 8 z" mul_3_2 [7:0] $end
$var wire 8 {" mul_3_1 [7:0] $end
$var wire 8 |" mul_3_0 [7:0] $end
$var wire 8 }" mul_2_3 [7:0] $end
$var wire 8 ~" mul_2_2 [7:0] $end
$var wire 8 !# mul_2_1 [7:0] $end
$var wire 8 "# mul_2_0 [7:0] $end
$var wire 8 ## mul_1_3 [7:0] $end
$var wire 8 $# mul_1_2 [7:0] $end
$var wire 8 %# mul_1_1 [7:0] $end
$var wire 8 &# mul_1_0 [7:0] $end
$var wire 8 '# mul_0_3 [7:0] $end
$var wire 8 (# mul_0_2 [7:0] $end
$var wire 8 )# mul_0_1 [7:0] $end
$var wire 8 *# mul_0_0 [7:0] $end
$var wire 64 +# encoded_result [63:0] $end
$var reg 64 ,# codeword_out [63:0] $end
$var reg 32 -# data_out [31:0] $end
$var reg 1 + error_corrected $end
$var reg 1 ' error_detected $end
$var reg 1 # valid_out $end
$upscope $end
$upscope $end
$upscope $end
$scope module dut64 $end
$var wire 1 5 clk $end
$var wire 160 .# codeword_in [159:0] $end
$var wire 64 /# data_in [63:0] $end
$var wire 1 < decode_en $end
$var wire 1 D encode_en $end
$var wire 1 F rst_n $end
$var wire 1 " valid_out $end
$var wire 1 & error_detected $end
$var wire 1 * error_corrected $end
$var wire 64 0# data_out [63:0] $end
$var wire 160 1# codeword_out [159:0] $end
$var parameter 32 2# DATA_WIDTH $end
$scope begin w64 $end
$var wire 96 3# cw_out_w64 [95:0] $end
$scope module u_rs $end
$var wire 1 5 clk $end
$var wire 96 4# codeword_in [95:0] $end
$var wire 64 5# data_in [63:0] $end
$var wire 1 < decode_en $end
$var wire 1 D encode_en $end
$var wire 8 6# feedback_0 [7:0] $end
$var wire 8 7# feedback_1 [7:0] $end
$var wire 8 8# feedback_2 [7:0] $end
$var wire 8 9# feedback_3 [7:0] $end
$var wire 8 :# feedback_4 [7:0] $end
$var wire 8 ;# feedback_5 [7:0] $end
$var wire 8 <# feedback_6 [7:0] $end
$var wire 8 =# feedback_7 [7:0] $end
$var wire 1 ># has_error $end
$var wire 8 ?# parity_byte_0 [7:0] $end
$var wire 8 @# parity_byte_1 [7:0] $end
$var wire 8 A# parity_byte_2 [7:0] $end
$var wire 8 B# parity_byte_3 [7:0] $end
$var wire 1 F rst_n $end
$var wire 8 C# syn_sum_0_1 [7:0] $end
$var wire 8 D# syn_sum_0_10 [7:0] $end
$var wire 8 E# syn_sum_0_11 [7:0] $end
$var wire 8 F# syn_sum_0_2 [7:0] $end
$var wire 8 G# syn_sum_0_3 [7:0] $end
$var wire 8 H# syn_sum_0_4 [7:0] $end
$var wire 8 I# syn_sum_0_5 [7:0] $end
$var wire 8 J# syn_sum_0_6 [7:0] $end
$var wire 8 K# syn_sum_0_7 [7:0] $end
$var wire 8 L# syn_sum_0_8 [7:0] $end
$var wire 8 M# syn_sum_0_9 [7:0] $end
$var wire 8 N# syn_sum_1_1 [7:0] $end
$var wire 8 O# syn_sum_1_10 [7:0] $end
$var wire 8 P# syn_sum_1_11 [7:0] $end
$var wire 8 Q# syn_sum_1_2 [7:0] $end
$var wire 8 R# syn_sum_1_3 [7:0] $end
$var wire 8 S# syn_sum_1_4 [7:0] $end
$var wire 8 T# syn_sum_1_5 [7:0] $end
$var wire 8 U# syn_sum_1_6 [7:0] $end
$var wire 8 V# syn_sum_1_7 [7:0] $end
$var wire 8 W# syn_sum_1_8 [7:0] $end
$var wire 8 X# syn_sum_1_9 [7:0] $end
$var wire 8 Y# syn_sum_2_1 [7:0] $end
$var wire 8 Z# syn_sum_2_10 [7:0] $end
$var wire 8 [# syn_sum_2_11 [7:0] $end
$var wire 8 \# syn_sum_2_2 [7:0] $end
$var wire 8 ]# syn_sum_2_3 [7:0] $end
$var wire 8 ^# syn_sum_2_4 [7:0] $end
$var wire 8 _# syn_sum_2_5 [7:0] $end
$var wire 8 `# syn_sum_2_6 [7:0] $end
$var wire 8 a# syn_sum_2_7 [7:0] $end
$var wire 8 b# syn_sum_2_8 [7:0] $end
$var wire 8 c# syn_sum_2_9 [7:0] $end
$var wire 8 d# syn_sum_3_1 [7:0] $end
$var wire 8 e# syn_sum_3_10 [7:0] $end
$var wire 8 f# syn_sum_3_11 [7:0] $end
$var wire 8 g# syn_sum_3_2 [7:0] $end
$var wire 8 h# syn_sum_3_3 [7:0] $end
$var wire 8 i# syn_sum_3_4 [7:0] $end
$var wire 8 j# syn_sum_3_5 [7:0] $end
$var wire 8 k# syn_sum_3_6 [7:0] $end
$var wire 8 l# syn_sum_3_7 [7:0] $end
$var wire 8 m# syn_sum_3_8 [7:0] $end
$var wire 8 n# syn_sum_3_9 [7:0] $end
$var wire 8 o# syn_mul_3_9 [7:0] $end
$var wire 8 p# syn_mul_3_8 [7:0] $end
$var wire 8 q# syn_mul_3_7 [7:0] $end
$var wire 8 r# syn_mul_3_6 [7:0] $end
$var wire 8 s# syn_mul_3_5 [7:0] $end
$var wire 8 t# syn_mul_3_4 [7:0] $end
$var wire 8 u# syn_mul_3_3 [7:0] $end
$var wire 8 v# syn_mul_3_2 [7:0] $end
$var wire 8 w# syn_mul_3_11 [7:0] $end
$var wire 8 x# syn_mul_3_10 [7:0] $end
$var wire 8 y# syn_mul_3_1 [7:0] $end
$var wire 8 z# syn_mul_2_9 [7:0] $end
$var wire 8 {# syn_mul_2_8 [7:0] $end
$var wire 8 |# syn_mul_2_7 [7:0] $end
$var wire 8 }# syn_mul_2_6 [7:0] $end
$var wire 8 ~# syn_mul_2_5 [7:0] $end
$var wire 8 !$ syn_mul_2_4 [7:0] $end
$var wire 8 "$ syn_mul_2_3 [7:0] $end
$var wire 8 #$ syn_mul_2_2 [7:0] $end
$var wire 8 $$ syn_mul_2_11 [7:0] $end
$var wire 8 %$ syn_mul_2_10 [7:0] $end
$var wire 8 &$ syn_mul_2_1 [7:0] $end
$var wire 8 '$ syn_mul_1_9 [7:0] $end
$var wire 8 ($ syn_mul_1_8 [7:0] $end
$var wire 8 )$ syn_mul_1_7 [7:0] $end
$var wire 8 *$ syn_mul_1_6 [7:0] $end
$var wire 8 +$ syn_mul_1_5 [7:0] $end
$var wire 8 ,$ syn_mul_1_4 [7:0] $end
$var wire 8 -$ syn_mul_1_3 [7:0] $end
$var wire 8 .$ syn_mul_1_2 [7:0] $end
$var wire 8 /$ syn_mul_1_11 [7:0] $end
$var wire 8 0$ syn_mul_1_10 [7:0] $end
$var wire 8 1$ syn_mul_1_1 [7:0] $end
$var wire 8 2$ syn_mul_0_9 [7:0] $end
$var wire 8 3$ syn_mul_0_8 [7:0] $end
$var wire 8 4$ syn_mul_0_7 [7:0] $end
$var wire 8 5$ syn_mul_0_6 [7:0] $end
$var wire 8 6$ syn_mul_0_5 [7:0] $end
$var wire 8 7$ syn_mul_0_4 [7:0] $end
$var wire 8 8$ syn_mul_0_3 [7:0] $end
$var wire 8 9$ syn_mul_0_2 [7:0] $end
$var wire 8 :$ syn_mul_0_11 [7:0] $end
$var wire 8 ;$ syn_mul_0_10 [7:0] $end
$var wire 8 <$ syn_mul_0_1 [7:0] $end
$var wire 8 =$ mul_7_3 [7:0] $end
$var wire 8 >$ mul_7_2 [7:0] $end
$var wire 8 ?$ mul_7_1 [7:0] $end
$var wire 8 @$ mul_7_0 [7:0] $end
$var wire 8 A$ mul_6_3 [7:0] $end
$var wire 8 B$ mul_6_2 [7:0] $end
$var wire 8 C$ mul_6_1 [7:0] $end
$var wire 8 D$ mul_6_0 [7:0] $end
$var wire 8 E$ mul_5_3 [7:0] $end
$var wire 8 F$ mul_5_2 [7:0] $end
$var wire 8 G$ mul_5_1 [7:0] $end
$var wire 8 H$ mul_5_0 [7:0] $end
$var wire 8 I$ mul_4_3 [7:0] $end
$var wire 8 J$ mul_4_2 [7:0] $end
$var wire 8 K$ mul_4_1 [7:0] $end
$var wire 8 L$ mul_4_0 [7:0] $end
$var wire 8 M$ mul_3_3 [7:0] $end
$var wire 8 N$ mul_3_2 [7:0] $end
$var wire 8 O$ mul_3_1 [7:0] $end
$var wire 8 P$ mul_3_0 [7:0] $end
$var wire 8 Q$ mul_2_3 [7:0] $end
$var wire 8 R$ mul_2_2 [7:0] $end
$var wire 8 S$ mul_2_1 [7:0] $end
$var wire 8 T$ mul_2_0 [7:0] $end
$var wire 8 U$ mul_1_3 [7:0] $end
$var wire 8 V$ mul_1_2 [7:0] $end
$var wire 8 W$ mul_1_1 [7:0] $end
$var wire 8 X$ mul_1_0 [7:0] $end
$var wire 8 Y$ mul_0_3 [7:0] $end
$var wire 8 Z$ mul_0_2 [7:0] $end
$var wire 8 [$ mul_0_1 [7:0] $end
$var wire 8 \$ mul_0_0 [7:0] $end
$var wire 96 ]$ encoded_result [95:0] $end
$var reg 96 ^$ codeword_out [95:0] $end
$var reg 64 _$ data_out [63:0] $end
$var reg 1 * error_corrected $end
$var reg 1 & error_detected $end
$var reg 1 " valid_out $end
$upscope $end
$upscope $end
$upscope $end
$scope module dut8 $end
$var wire 1 5 clk $end
$var wire 160 `$ codeword_in [159:0] $end
$var wire 8 a$ data_in [7:0] $end
$var wire 1 = decode_en $end
$var wire 1 E encode_en $end
$var wire 1 F rst_n $end
$var wire 1 ! valid_out $end
$var wire 1 % error_detected $end
$var wire 1 ) error_corrected $end
$var wire 8 b$ data_out [7:0] $end
$var wire 160 c$ codeword_out [159:0] $end
$var parameter 32 d$ DATA_WIDTH $end
$scope begin w8 $end
$var wire 40 e$ cw_out_w8 [39:0] $end
$scope module u_rs $end
$var wire 1 5 clk $end
$var wire 40 f$ codeword_in [39:0] $end
$var wire 8 g$ data_in [7:0] $end
$var wire 1 = decode_en $end
$var wire 1 E encode_en $end
$var wire 8 h$ feedback_0 [7:0] $end
$var wire 1 i$ has_error $end
$var wire 8 j$ parity_byte_0 [7:0] $end
$var wire 8 k$ parity_byte_1 [7:0] $end
$var wire 8 l$ parity_byte_2 [7:0] $end
$var wire 8 m$ parity_byte_3 [7:0] $end
$var wire 1 F rst_n $end
$var wire 8 n$ syn_sum_0_1 [7:0] $end
$var wire 8 o$ syn_sum_0_2 [7:0] $end
$var wire 8 p$ syn_sum_0_3 [7:0] $end
$var wire 8 q$ syn_sum_0_4 [7:0] $end
$var wire 8 r$ syn_sum_1_1 [7:0] $end
$var wire 8 s$ syn_sum_1_2 [7:0] $end
$var wire 8 t$ syn_sum_1_3 [7:0] $end
$var wire 8 u$ syn_sum_1_4 [7:0] $end
$var wire 8 v$ syn_sum_2_1 [7:0] $end
$var wire 8 w$ syn_sum_2_2 [7:0] $end
$var wire 8 x$ syn_sum_2_3 [7:0] $end
$var wire 8 y$ syn_sum_2_4 [7:0] $end
$var wire 8 z$ syn_sum_3_1 [7:0] $end
$var wire 8 {$ syn_sum_3_2 [7:0] $end
$var wire 8 |$ syn_sum_3_3 [7:0] $end
$var wire 8 }$ syn_sum_3_4 [7:0] $end
$var wire 8 ~$ syn_mul_3_4 [7:0] $end
$var wire 8 !% syn_mul_3_3 [7:0] $end
$var wire 8 "% syn_mul_3_2 [7:0] $end
$var wire 8 #% syn_mul_3_1 [7:0] $end
$var wire 8 $% syn_mul_2_4 [7:0] $end
$var wire 8 %% syn_mul_2_3 [7:0] $end
$var wire 8 &% syn_mul_2_2 [7:0] $end
$var wire 8 '% syn_mul_2_1 [7:0] $end
$var wire 8 (% syn_mul_1_4 [7:0] $end
$var wire 8 )% syn_mul_1_3 [7:0] $end
$var wire 8 *% syn_mul_1_2 [7:0] $end
$var wire 8 +% syn_mul_1_1 [7:0] $end
$var wire 8 ,% syn_mul_0_4 [7:0] $end
$var wire 8 -% syn_mul_0_3 [7:0] $end
$var wire 8 .% syn_mul_0_2 [7:0] $end
$var wire 8 /% syn_mul_0_1 [7:0] $end
$var wire 8 0% mul_0_3 [7:0] $end
$var wire 8 1% mul_0_2 [7:0] $end
$var wire 8 2% mul_0_1 [7:0] $end
$var wire 8 3% mul_0_0 [7:0] $end
$var wire 40 4% encoded_result [39:0] $end
$var reg 40 5% codeword_out [39:0] $end
$var reg 8 6% data_out [7:0] $end
$var reg 1 ) error_corrected $end
$var reg 1 % error_detected $end
$var reg 1 ! valid_out $end
$upscope $end
$upscope $end
$upscope $end
$scope task chk $end
$upscope $end
$upscope $end
$enddefinitions $end
$comment Show the parameter values. $end
$dumpall
b1000 d$
b1000000 2#
b100000 4"
b10000 P
$end
#0
$dumpvars
b0 6%
b0 5%
b0 4%
b0 3%
b0 2%
b0 1%
b0 0%
b0 /%
b0 .%
b0 -%
b0 ,%
b0 +%
b0 *%
b0 )%
b0 (%
b0 '%
b0 &%
b0 %%
b0 $%
b0 #%
b0 "%
b0 !%
b0 ~$
b0 }$
b0 |$
b0 {$
b0 z$
b0 y$
b0 x$
b0 w$
b0 v$
b0 u$
b0 t$
b0 s$
b0 r$
b0 q$
b0 p$
b0 o$
b0 n$
b0 m$
b0 l$
b0 k$
b0 j$
0i$
b0 h$
b0 g$
b0 f$
b0 e$
b0 c$
b0 b$
b0 a$
b0 `$
b0 _$
b0 ^$
b0 ]$
b0 \$
b0 [$
b0 Z$
b0 Y$
b0 X$
b0 W$
b0 V$
b0 U$
b0 T$
b0 S$
b0 R$
b0 Q$
b0 P$
b0 O$
b0 N$
b0 M$
b0 L$
b0 K$
b0 J$
b0 I$
b0 H$
b0 G$
b0 F$
b0 E$
b0 D$
b0 C$
b0 B$
b0 A$
b0 @$
b0 ?$
b0 >$
b0 =$
b0 <$
b0 ;$
b0 :$
b0 9$
b0 8$
b0 7$
b0 6$
b0 5$
b0 4$
b0 3$
b0 2$
b0 1$
b0 0$
b0 /$
b0 .$
b0 -$
b0 ,$
b0 +$
b0 *$
b0 )$
b0 ($
b0 '$
b0 &$
b0 %$
b0 $$
b0 #$
b0 "$
b0 !$
b0 ~#
b0 }#
b0 |#
b0 {#
b0 z#
b0 y#
b0 x#
b0 w#
b0 v#
b0 u#
b0 t#
b0 s#
b0 r#
b0 q#
b0 p#
b0 o#
b0 n#
b0 m#
b0 l#
b0 k#
b0 j#
b0 i#
b0 h#
b0 g#
b0 f#
b0 e#
b0 d#
b0 c#
b0 b#
b0 a#
b0 `#
b0 _#
b0 ^#
b0 ]#
b0 \#
b0 [#
b0 Z#
b0 Y#
b0 X#
b0 W#
b0 V#
b0 U#
b0 T#
b0 S#
b0 R#
b0 Q#
b0 P#
b0 O#
b0 N#
b0 M#
b0 L#
b0 K#
b0 J#
b0 I#
b0 H#
b0 G#
b0 F#
b0 E#
b0 D#
b0 C#
b0 B#
b0 A#
b0 @#
b0 ?#
0>#
b0 =#
b0 <#
b0 ;#
b0 :#
b0 9#
b0 8#
b0 7#
b0 6#
b0 5#
b0 4#
b0 3#
b0 1#
b0 0#
b0 /#
b0 .#
b0 -#
b0 ,#
b0 +#
b0 *#
b0 )#
b0 (#
b0 '#
b0 &#
b0 %#
b0 $#
b0 ##
b0 "#
b0 !#
b0 ~"
b0 }"
b0 |"
b0 {"
b0 z"
b0 y"
b0 x"
b0 w"
b0 v"
b0 u"
b0 t"
b0 s"
b0 r"
b0 q"
b0 p"
b0 o"
b0 n"
b0 m"
b0 l"
b0 k"
b0 j"
b0 i"
b0 h"
b0 g"
b0 f"
b0 e"
b0 d"
b0 c"
b0 b"
b0 a"
b0 `"
b0 _"
b0 ^"
b0 ]"
b0 \"
b0 ["
b0 Z"
b0 Y"
b0 X"
b0 W"
b0 V"
b0 U"
b0 T"
b0 S"
b0 R"
b0 Q"
b0 P"
b0 O"
b0 N"
b0 M"
b0 L"
b0 K"
b0 J"
b0 I"
b0 H"
b0 G"
b0 F"
b0 E"
b0 D"
b0 C"
b0 B"
b0 A"
b0 @"
b0 ?"
b0 >"
b0 ="
0<"
b0 ;"
b0 :"
b0 9"
b0 8"
b0 7"
b0 6"
b0 5"
b0 3"
b0 2"
b0 1"
b0 0"
b0 /"
b0 ."
b0 -"
b0 ,"
b0 +"
b0 *"
b0 )"
b0 ("
b0 '"
b0 &"
b0 %"
b0 $"
b0 #"
b0 ""
b0 !"
b0 ~
b0 }
b0 |
b0 {
b0 z
b0 y
b0 x
b0 w
b0 v
b0 u
b0 t
b0 s
b0 r
b0 q
b0 p
b0 o
b0 n
b0 m
b0 l
b0 k
b0 j
b0 i
b0 h
b0 g
b0 f
b0 e
b0 d
b0 c
b0 b
b0 a
b0 `
b0 _
b0 ^
b0 ]
b0 \
b0 [
b0 Z
b0 Y
b0 X
b0 W
0V
b0 U
b0 T
b0 S
b0 R
b0 Q
b0 O
b0 N
b0 M
b0 L
b0 K
bx J
bx I
bx H
bx G
0F
0E
0D
0C
0B
b0 A
b0 @
b0 ?
b0 >
0=
0<
0;
0:
b0 9
b0 8
b0 7
b0 6
05
b0 4
b0 3
b0 2
b0 1
b0 0
b0 /
b0 .
b0 -
0,
0+
0*
0)
0(
0'
0&
0%
0$
0#
0"
0!
$end
#5000
15
#10000
05
#15000
15
#20000
05
#25000
15
#30000
05
#35000
15
#40000
1F
05
#45000
15
#50000
b10 l$
b1111011 k$
b1000111 j$
b10010101 m$
b10010101 3%
b10 2%
b1111011 1%
b1000111 0%
b10101011 h$
b1001010100000010011110110100011110101011 4%
b10101011 A
b10101011 a$
b10101011 g$
1E
05
#55000
1!
b1001010100000010011110110100011110101011 1
b1001010100000010011110110100011110101011 c$
b1001010100000010011110110100011110101011 e$
b1001010100000010011110110100011110101011 5%
15
#60000
0E
b1001010100000010011110110100011110101011 J
05
#65000
0!
15
#70000
05
#75000
15
#80000
b10010101 ~$
b10010101 $%
b11000 *%
b10010101 (%
b11101100 .%
b10010111 -%
b10010101 ,%
b11000110 )%
b1100011 &%
b1100000 %%
b10010111 "%
b110011 !%
0i$
b11101100 n$
b10010111 o$
b10010101 p$
b0 q$
b1100 r$
b1100011 s$
b11000100 t$
b0 u$
b11010001 v$
b11000 w$
b1100010 x$
b0 y$
b1110110 z$
b11101100 {$
b110001 |$
b0 }$
b10101011 /%
b1001011 +%
b10010110 '%
b110001 #%
b1001010100000010011110110100011110101011 f$
b1001010100000010011110110100011110101011 9
b1001010100000010011110110100011110101011 `$
1=
05
#85000
1!
b10101011 -
b10101011 b$
b10101011 6%
15
#90000
0=
05
#95000
0!
15
#100000
b0 l$
b0 k$
b0 j$
b0 m$
b0 3%
b0 2%
b0 1%
b0 0%
b0 h$
b0 4%
b0 A
b0 a$
b0 g$
1E
05
#105000
1!
b0 1
b0 c$
b0 e$
b0 5%
15
#110000
0E
05
#115000
0!
15
#120000
b0 ~$
b0 $%
b0 *%
b0 (%
b0 .%
b0 -%
b0 ,%
b0 )%
b0 &%
b0 %%
b0 "%
b0 !%
0i$
b0 n$
b0 o$
b0 p$
b0 q$
b0 r$
b0 s$
b0 t$
b0 u$
b0 v$
b0 w$
b0 x$
b0 y$
b0 z$
b0 {$
b0 |$
b0 }$
b0 /%
b0 +%
b0 '%
b0 #%
b0 f$
b0 9
b0 `$
1=
05
#125000
1!
b0 -
b0 b$
b0 6%
15
#130000
0=
05
#135000
0!
15
#140000
b1000111 l$
b11100101 k$
b1101100 j$
b110001 m$
b110001 3%
b1000111 2%
b11100101 1%
b1101100 0%
b11111111 h$
b11000101000111111001010110110011111111 4%
b11111111 A
b11111111 a$
b11111111 g$
1E
05
#145000
1!
b11000101000111111001010110110011111111 1
b11000101000111111001010110110011111111 c$
b11000101000111111001010110110011111111 e$
b11000101000111111001010110110011111111 5%
15
#150000
0E
b11000101000111111001010110110011111111 J
05
#155000
0!
15
